<svg width="34" height="30" viewBox="0 0 34 30" fill="none" xmlns="http://www.w3.org/2000/svg">
<path d="M33.5 15C33.5 22.9512 26.1733 29.5 17 29.5C7.82665 29.5 0.5 22.9512 0.5 15C0.5 7.04885 7.82665 0.5 17 0.5C26.1733 0.5 33.5 7.04885 33.5 15Z" stroke="#6F7FF0"/>
<path d="M10.6464 14.6464C10.4512 14.8417 10.4512 15.1583 10.6464 15.3536L13.8284 18.5355C14.0237 18.7308 14.3403 18.7308 14.5355 18.5355C14.7308 18.3403 14.7308 18.0237 14.5355 17.8284L11.7071 15L14.5355 12.1716C14.7308 11.9763 14.7308 11.6597 14.5355 11.4645C14.3403 11.2692 14.0237 11.2692 13.8284 11.4645L10.6464 14.6464ZM23 14.5L11 14.5V15.5L23 15.5V14.5Z" fill="#6F7FF0"/>
<path d="M10.6464 14.6464C10.4512 14.8417 10.4512 15.1583 10.6464 15.3536L13.8284 18.5355C14.0237 18.7308 14.3403 18.7308 14.5355 18.5355C14.7308 18.3403 14.7308 18.0237 14.5355 17.8284L11.7071 15L14.5355 12.1716C14.7308 11.9763 14.7308 11.6597 14.5355 11.4645C14.3403 11.2692 14.0237 11.2692 13.8284 11.4645L10.6464 14.6464ZM23 14.5L11 14.5V15.5L23 15.5V14.5Z" fill="#6F7FF0"/>
</svg>
