<svg width="28" height="13" viewBox="0 0 28 13" fill="none" xmlns="http://www.w3.org/2000/svg">
<path d="M21.726 0H6.27419C2.81455 0 0 2.74314 0 6.11511C0 9.48708 2.81455 12.2302 6.27419 12.2302H21.726C25.1855 12.2302 28 9.48708 28 6.11511C28 2.74314 25.1855 0 21.726 0ZM21.726 11.2894H6.27419C3.34698 11.2894 0.965508 8.96823 0.965508 6.11511C0.965508 3.26199 3.34698 0.940827 6.27419 0.940827H21.726C24.6532 0.940827 27.0344 3.26199 27.0344 6.11511C27.0344 8.96823 24.6532 11.2894 21.726 11.2894Z" fill="black"/>
<path d="M6.40701 2.54395C4.27748 2.54395 2.54492 4.23212 2.54492 6.3071C2.54492 8.38213 4.27748 10.0702 6.40701 10.0702C8.53654 10.0702 10.2691 8.38213 10.2691 6.3071C10.269 4.23212 8.53649 2.54395 6.40701 2.54395ZM6.40701 9.12947C4.80975 9.12947 3.51043 7.86344 3.51043 6.30715C3.51043 4.75086 4.80975 3.48477 6.40701 3.48477C8.00427 3.48477 9.30359 4.75086 9.30359 6.30715C9.30353 7.86344 8.00421 9.12947 6.40701 9.12947Z" fill="black"/>
</svg>
