<svg width="435" height="806" viewBox="0 0 435 806" fill="none" xmlns="http://www.w3.org/2000/svg">
<path fill-rule="evenodd" clip-rule="evenodd" d="M134.612 229.836C129.899 184.125 246.386 226.352 278.28 195.139C317.244 157.009 259.334 32.4395 324.829 43.6863C409.219 58.1777 416.175 179.546 485.798 230.774C512.551 250.458 550.104 217.693 580.582 231.865C610.391 245.727 614.137 283.326 640.275 302.606C677.85 330.323 735.735 333.149 764.477 367.515C791.403 399.71 803.737 446.538 785.353 476.073C765.207 508.438 688.856 488.745 668.831 521.177C644.822 560.062 692.892 621.757 670.767 661.655C648.56 701.699 604.643 750.985 548.511 738.146C484.028 723.397 474.772 626.848 412.363 602.552C351.924 579.024 272.359 662.64 233.023 615.329C187.432 560.495 267.842 504.196 282.835 446.762C289.259 422.151 313.397 396.761 296.524 372.067C257.604 315.107 140.922 291.031 134.612 229.836Z" fill="#6F7FF0" fill-opacity="0.24"/>
</svg>
