<svg width="279" height="485" viewBox="0 0 279 485" fill="none" xmlns="http://www.w3.org/2000/svg">
<path fill-rule="evenodd" clip-rule="evenodd" d="M-381.388 187.836C-386.101 142.125 -269.614 184.352 -237.72 153.139C-198.756 115.009 -256.666 -9.56053 -191.171 1.68629C-106.781 16.1777 -99.8249 137.546 -30.2016 188.774C-3.44936 208.458 34.1037 175.693 64.5821 189.865C94.3915 203.727 98.137 241.326 124.275 260.606C161.85 288.323 219.735 291.149 248.477 325.515C275.403 357.71 287.737 404.538 269.353 434.073C249.207 466.438 172.856 446.745 152.831 479.177C128.822 518.062 176.892 579.757 154.767 619.655C132.56 659.699 88.6428 708.985 32.5106 696.146C-31.9716 681.397 -41.2278 584.848 -103.637 560.552C-164.076 537.024 -243.641 620.64 -282.977 573.329C-328.568 518.495 -248.158 462.196 -233.165 404.762C-226.741 380.151 -202.603 354.761 -219.476 330.067C-258.396 273.107 -375.078 249.031 -381.388 187.836Z" fill="#6F7FF0" fill-opacity="0.3"/>
</svg>
